{
    "dependencies": [
        {
            "name": "grafonnet-lib",
            "source": {
                "git": {
                    "remote": "https://github.com/grafana/grafonnet-lib",
                    "subdir": ""
                }
            },
            "version": "master"
        },
        {
            "name": "kubernetes-mixin",
            "source": {
                "git": {
                    "remote": "https://github.com/kubernetes-monitoring/kubernetes-mixin",
                    "subdir": ""
                }
            },
            "version": "v0.1.0"
        }
    ]
}
